…
# get package for TTC delay data in May 2020
TTC_delay_2020 <- get_resource("fac1d636-8158-47ec-bfa2-01bc7d061f46")
TTC_delay_2020$`May 2020`

## # A tibble: 3,504 x 10
##    `Report Date`       Route Time                Day   Location Incident Delay
##    <dttm>              <dbl> <dttm>              <chr> <chr>    <chr>    <dbl>
##  1 2020-05-01 00:00:00   329 1899-12-31 01:31:00 Frid… STEELES… Mechani…    30
##  2 2020-05-01 00:00:00   300 1899-12-31 03:20:00 Frid… The Wes… Emergen…     3
##  3 2020-05-01 00:00:00    35 1899-12-31 04:04:00 Frid… PVST     Late Le…     1
##  4 2020-05-01 00:00:00   600 1899-12-31 05:00:00 Frid… Eglinto… Utilize…     1
##  5 2020-05-01 00:00:00   600 1899-12-31 05:00:00 Frid… Eglinto… Utilize…     1
##  6 2020-05-01 00:00:00    63 1899-12-31 05:31:00 Frid… King/At… Utilize…    13
##  7 2020-05-01 00:00:00    50 1899-12-31 05:46:00 Frid… Mill lo… Late Le…     1
##  8 2020-05-01 00:00:00   129 1899-12-31 06:00:00 Frid… STC      Late Le…     6
##  9 2020-05-01 00:00:00   116 1899-12-31 06:05:00 Frid… Kennedy  Late Le…    17
## 10 2020-05-01 00:00:00    12 1899-12-31 06:09:00 Frid… Brimley… Investi…    13
## # … with 3,494 more rows, and 3 more variables: Gap <dbl>, Direction <chr>,
## #   Vehicle <dbl>
…
